 124

C       0.00000000      0.00000000      0.00000000
C       0.44400000      1.30500000      0.00000000
S       1.30350000     -1.11670000      0.00000000
C       1.85460000      1.40350000      0.00000000
H      -0.22640000      2.16400000      0.00000000
C       2.49650000      0.16870000      0.00000000
H       2.40390000      2.34170000      0.00000000
C       3.91660000     -0.13230000      0.00000000
C       4.93010000      0.88550000      0.00000000
C       4.41020000     -1.44000000      0.00000000
C       6.34340000      0.54290000      0.00000000
N       4.71540000      2.22000000      0.00000000
C       5.77640000     -1.76800000      0.00000000
H       3.70430000     -2.27320000      0.00000000
C       6.80040000     -0.81600000      0.00000000
N       7.15220000      1.62200000      0.00000000
S       6.18290000      2.93730000      0.00000000
H       6.02950000     -2.82810000      0.00000000
C       8.20150000     -1.19050000      0.00000000
C       8.71330000     -2.49100000      0.00000000
S       9.50630000     -0.02890000      0.00000000
C      10.11040000     -2.54350000      0.00000000
H       8.09480000     -3.38690000      0.00000000
C      10.71870000     -1.28620000      0.00000000
H      10.65920000     -3.48380000      0.00000000
C      12.14700000     -1.01520000      0.00000000
C      12.69140000      0.31440000      0.00000000
C      13.09380000     -2.04350000      0.00000000
C      14.12320000      0.54220000      0.00000000
N      11.97260000      1.45660000      0.00000000
C      14.49010000     -1.81400000      0.00000000
H      12.75780000     -3.08030000      0.00000000
C      15.03020000     -0.54310000      0.00000000
N      14.46200000      1.85430000      0.00000000
S      13.05530000      2.68530000      0.00000000
H      15.15510000     -2.68000000      0.00000000
C       0.00000000      0.00000000     10.00000000
C       0.89300172      0.91964109     10.85701686
C      -0.88438829     -0.84038050     10.91456143
C       0.70819397     -0.78956208      8.93417811
C      -0.78848386      0.71072749      8.93057377
H       1.45621863      1.61909509     10.22296273
H       0.21525606      1.53604192     11.47262561
C       1.87432164      0.16542583     11.75110743
C      -2.05871978     -0.28199327     11.43544573
C      -0.51679593     -2.13331376     11.30568582
C      -0.07379381     -1.81914400      8.24896450
C       1.83982210     -0.31244416      8.24889115
C      -1.82123994     -0.07115165      8.25002475
C      -0.31408067      1.84382250      8.24707679
H       1.32933389     -0.50750772     12.43313242
C       2.72848477      1.12896572     12.58430772
H       2.54876441     -0.46016179     11.14528559
C      -2.86000356     -1.00691365     12.31958120
H      -2.35952287      0.72536443     11.13597074
C      -1.31662134     -2.86011988     12.19151160
H       0.39943083     -2.58244230     10.91679749
C      -1.47432553     -1.47196328      7.98519147
C       0.58940819     -2.68633344      7.37389419
C       2.51287024     -1.18652265      7.31738145
C       2.05905415      1.05969634      7.79694891
C      -2.68829910      0.59152173      7.37378407
C       1.05769749      2.06197957      7.79478265
C      -1.18859204      2.51592314      7.31539396
H       2.07948195      1.75062508     13.21661669
C       3.79380114      0.36887695     13.35798069
H       3.27429340      1.81397561     11.91073424
C      -2.49242753     -2.30114365     12.69723383
H      -3.77846574     -0.56232523     12.70777651
H      -1.01996371     -3.86935553     12.48312667
C      -2.12698790     -2.12493555      6.91333543
C      -0.08679306     -3.34247753      6.28704514
C       1.94209164     -2.39889400      6.93939879
C       3.25959573     -0.40272391      6.37236091
C       2.97537337      0.98481265      6.65117306
C      -3.34423129     -0.08477297      6.28679985
C      -2.40058611      1.94396120      6.93783218
C       0.98326507      2.97784760      6.64957887
C      -0.40437246      3.26240052      6.37035662
O       4.54733928     -0.41476492     12.81569801
O       3.93150306      0.56632610     14.70860411
H      -3.12239620     -2.87314029     13.38086434
C      -1.43457164     -3.07794970      6.06723727
C      -3.07934754     -1.43262885      6.06691174
C       0.83422877     -3.46500157      5.17470374
C       2.09038195     -2.86600581      5.57641992
C       3.43418930     -0.86142369      5.06342117
C       2.89943922      1.88018722      5.58436585
C      -3.46621123      0.83557372      5.17369504
C      -2.86729363      2.09187468      5.57447981
C       1.87897359      2.90127054      5.58350108
C      -0.86264468      3.43608136      5.06121236
C       3.04798852      1.44376689     15.42892675
C      -1.92400447     -2.94468090      4.70890518
C      -2.94569806     -1.92266925      4.70873343
C       0.36749848     -3.31424196      3.86755412
C       2.82836163     -2.11369003      4.65523284
C       3.33363288      0.06925646      3.96081313
C       3.07562666      1.41825331      4.21961213
C      -3.31476629      0.36836086      3.86669919
C      -2.11479224      2.82972825      4.65317444
C       1.41751458      3.07684417      4.21854284
C       0.06851334      3.33496353      3.95887751
H       3.12789033      2.48264665     15.07247117
H       2.00347294      1.09886794     15.37230304
H       3.38303264      1.39668934     16.47262462
C      -1.03926974     -3.05265349      3.63040372
C      -3.05337461     -1.03845925      3.62975606
C       1.13698846     -2.54403830      2.91005913
C       2.34329549     -1.95167184      3.29860786
C       2.66015345     -0.60302561      2.86700006
C       2.15252214      2.15306490      3.37817470
C      -2.54426113      1.13750801      2.90888305
C      -1.95218957      2.34426284      3.29673712
C      -0.60348227      2.66095405      2.86531799
C      -1.13999424     -2.12879489      2.51819476
C      -2.12912868     -1.13973790      2.51787097
C       0.20411162     -1.81044344      2.07670139
C       1.76164649      0.10289983      2.06205647
C       1.50739947      1.50754250      2.31728874
C      -1.81077259      0.20428215      2.07595230
C       0.10283754      1.76173810      2.06142665
C       0.51235880     -0.51235880      1.65785558
C      -0.51235880      0.51235880      1.65753170
