 124

C       0.00000000      0.00000000      0.00000000
C       0.44400000      1.30500000      0.00000000
S       1.30350000     -1.11670000      0.00000000
C       1.85460000      1.40350000      0.00000000
H      -0.22640000      2.16400000      0.00000000
C       2.49650000      0.16870000      0.00000000
H       2.40390000      2.34170000      0.00000000
C       3.91660000     -0.13230000      0.00000000
C       4.93010000      0.88550000      0.00000000
C       4.41020000     -1.44000000      0.00000000
C       6.34340000      0.54290000      0.00000000
N       4.71540000      2.22000000      0.00000000
C       5.77640000     -1.76800000      0.00000000
H       3.70430000     -2.27320000      0.00000000
C       6.80040000     -0.81600000      0.00000000
N       7.15220000      1.62200000      0.00000000
S       6.18290000      2.93730000      0.00000000
H       6.02950000     -2.82810000      0.00000000
C       8.20150000     -1.19050000      0.00000000
C       8.71330000     -2.49100000      0.00000000
S       9.50630000     -0.02890000      0.00000000
C      10.11040000     -2.54350000      0.00000000
H       8.09480000     -3.38690000      0.00000000
C      10.71870000     -1.28620000      0.00000000
H      10.65920000     -3.48380000      0.00000000
C      12.14700000     -1.01520000      0.00000000
C      12.69140000      0.31440000      0.00000000
C      13.09380000     -2.04350000      0.00000000
C      14.12320000      0.54220000      0.00000000
N      11.97260000      1.45660000      0.00000000
C      14.49010000     -1.81400000      0.00000000
H      12.75780000     -3.08030000      0.00000000
C      15.03020000     -0.54310000      0.00000000
N      14.46200000      1.85430000      0.00000000
S      13.05530000      2.68530000      0.00000000
H      15.15510000     -2.68000000      0.00000000
C       2.24590000      0.71296000     10.00000000
C       1.32625891      1.60596172     10.85701686
C       3.08628050     -0.17142829     10.91456143
C       3.03546208      1.42115397      8.93417811
C       1.53517251     -0.07552386      8.93057377
H       0.62680491      2.16917863     10.22296273
H       0.70985808      0.92821606     11.47262561
C       2.08047417      2.58728164     11.75110743
C       2.52789327     -1.34575978     11.43544573
C       4.37921376      0.19616407     11.30568582
C       4.06504400      0.63916619      8.24896450
C       2.55834416      2.55278210      8.24889115
C       2.31705165     -1.10827994      8.25002475
C       0.40207750      0.39887933      8.24707679
H       2.75340772      2.04229389     12.43313242
C       1.11693428      3.44144477     12.58430772
H       2.70606179      3.26172441     11.14528559
C       3.25281365     -2.14704356     12.31958120
H       1.52053557     -1.64656287     11.13597074
C       5.10601988     -0.60366134     12.19151160
H       4.82834230      1.11239083     10.91679749
C       3.71786328     -0.76136553      7.98519147
C       4.93223344      1.30236819      7.37389419
C       3.43242265      3.22583024      7.31738145
C       1.18620366      2.77201415      7.79694891
C       1.65437827     -1.97533910      7.37378407
C       0.18392043      1.77065749      7.79478265
C      -0.27002314     -0.47563204      7.31539396
H       0.49527492      2.79244195     13.21661669
C       1.87702305      4.50676114     13.35798069
H       0.43192439      3.98725340     11.91073424
C       4.54704365     -1.77946753     12.69723383
H       2.80822523     -3.06550574     12.70777651
H       6.11525553     -0.30700371     12.48312667
C       4.37083555     -1.41402790      6.91333543
C       5.58837753      0.62616694      6.28704514
C       4.64479400      2.65505164      6.93939879
C       2.64862391      3.97255573      6.37236091
C       1.26108735      3.68833337      6.65117306
C       2.33067297     -2.63127129      6.28679985
C       0.30193880     -1.68762611      6.93783218
C      -0.73194760      1.69622507      6.64957887
C      -1.01650052      0.30858754      6.37035662
O       2.66066492      5.26029928     12.81569801
O       1.67957390      4.64446306     14.70860411
H       5.11904029     -2.40943620     13.38086434
C       5.32384970     -0.72161164      6.06723727
C       3.67852885     -2.36638754      6.06691174
C       5.71090157      1.54718877      5.17470374
C       5.11190581      2.80334195      5.57641992
C       3.10732369      4.14714930      5.06342117
C       0.36571278      3.61239922      5.58436585
C       1.41032628     -2.75325123      5.17369504
C       0.15402532     -2.15433363      5.57447981
C      -0.65537054      2.59193359      5.58350108
C      -1.19018136     -0.14968468      5.06121236
C       0.80213311      3.76094852     15.42892675
C       5.19058090     -1.21104447      4.70890518
C       4.16856925     -2.23273806      4.70873343
C       5.56014196      1.08045848      3.86755412
C       4.35959003      3.54132163      4.65523284
C       2.17664354      4.04659288      3.96081313
C       0.82764669      3.78858666      4.21961213
C       1.87753914     -2.60180629      3.86669919
C      -0.58382825     -1.40183224      4.65317444
C      -0.83094417      2.13047458      4.21854284
C      -1.08906353      0.78147334      3.95887751
H      -0.23674665      3.84085033     15.07247117
H       1.14703206      2.71643294     15.37230304
H       0.84921066      4.09599264     16.47262462
C       5.29855349     -0.32630974      3.63040372
C       3.28435925     -2.34041461      3.62975606
C       4.78993830      1.84994846      2.91005913
C       4.19757184      3.05625549      3.29860786
C       2.84892561      3.37311345      2.86700006
C       0.09283510      2.86548214      3.37817470
C       1.10839199     -1.83130113      2.90888305
C      -0.09836284     -1.23922957      3.29673712
C      -0.41505405      0.10947773      2.86531799
C       4.37469489     -0.42703424      2.51819476
C       3.38563790     -1.41616868      2.51787097
C       4.05634344      0.91707162      2.07670139
C       2.14300017      2.47460649      2.06205647
C       0.73835750      2.22035947      2.31728874
C       2.04161785     -1.09781259      2.07595230
C       0.48416190      0.81579754      2.06142665
C       2.75825880      1.22531880      1.65785558
C       1.73354120      0.20060120      1.65753170
