polymer-1_r_pcbm_r_a_mp-manual_000001.xyz
0                                        # Number of moving sections (ncut)
0                                        # Number of fixed sections (nsplit)
0                                        # Number of species (nspecies)
